<?xml version="1.0" encoding="UTF-8"?>
<svg xmlns="http://www.w3.org/2000/svg" xmlns:xlink="http://www.w3.org/1999/xlink" width="120pt" height="119.999999pt" viewBox="0 0 120 119.999999" version="1.2">
<defs>
<clipPath id="clip1">
  <path d="M 67.214844 21.890625 L 86.0625 21.890625 L 86.0625 120 L 67.214844 120 Z M 67.214844 21.890625 "/>
</clipPath>
<clipPath id="clip2">
  <path d="M 34.320312 21.890625 L 53.59375 21.890625 L 53.59375 120 L 34.320312 120 Z M 34.320312 21.890625 "/>
</clipPath>
<clipPath id="clip3">
  <path d="M 38 6.394531 L 83 6.394531 L 83 50 L 38 50 Z M 38 6.394531 "/>
</clipPath>
<clipPath id="clip4">
  <path d="M 44.816406 55.792969 L 76.027344 55.792969 L 76.027344 87 L 44.816406 87 Z M 44.816406 55.792969 "/>
</clipPath>
<clipPath id="clip5">
  <path d="M 76.027344 71.394531 C 76.027344 72.421875 75.925781 73.433594 75.726562 74.441406 C 75.527344 75.445312 75.230469 76.421875 74.835938 77.367188 C 74.445312 78.3125 73.964844 79.214844 73.394531 80.066406 C 72.828125 80.917969 72.179688 81.707031 71.457031 82.429688 C 70.730469 83.152344 69.941406 83.800781 69.089844 84.371094 C 68.238281 84.9375 67.339844 85.421875 66.394531 85.8125 C 65.445312 86.203125 64.46875 86.5 63.464844 86.699219 C 62.460938 86.898438 61.445312 87 60.421875 87 C 59.398438 87 58.382812 86.898438 57.378906 86.699219 C 56.371094 86.5 55.398438 86.203125 54.449219 85.8125 C 53.503906 85.421875 52.605469 84.9375 51.753906 84.371094 C 50.902344 83.800781 50.113281 83.152344 49.386719 82.429688 C 48.664062 81.707031 48.015625 80.917969 47.445312 80.066406 C 46.878906 79.214844 46.398438 78.3125 46.003906 77.367188 C 45.613281 76.421875 45.316406 75.445312 45.117188 74.441406 C 44.917969 73.433594 44.816406 72.421875 44.816406 71.394531 C 44.816406 70.371094 44.917969 69.355469 45.117188 68.351562 C 45.316406 67.347656 45.613281 66.371094 46.003906 65.425781 C 46.398438 64.476562 46.878906 63.578125 47.445312 62.726562 C 48.015625 61.875 48.664062 61.085938 49.386719 60.363281 C 50.113281 59.636719 50.902344 58.992188 51.753906 58.421875 C 52.605469 57.851562 53.503906 57.371094 54.449219 56.980469 C 55.398438 56.585938 56.371094 56.292969 57.378906 56.089844 C 58.382812 55.890625 59.398438 55.792969 60.421875 55.792969 C 61.445312 55.792969 62.460938 55.890625 63.464844 56.089844 C 64.46875 56.292969 65.445312 56.585938 66.394531 56.980469 C 67.339844 57.371094 68.238281 57.851562 69.089844 58.421875 C 69.941406 58.992188 70.730469 59.636719 71.457031 60.363281 C 72.179688 61.085938 72.828125 61.875 73.394531 62.726562 C 73.964844 63.578125 74.445312 64.476562 74.835938 65.425781 C 75.230469 66.371094 75.527344 67.347656 75.726562 68.351562 C 75.925781 69.355469 76.027344 70.371094 76.027344 71.394531 Z M 76.027344 71.394531 "/>
</clipPath>
<clipPath id="clip6">
  <path d="M 44.246094 55.792969 L 76.023438 55.792969 L 76.023438 87.566406 L 44.246094 87.566406 Z M 44.246094 55.792969 "/>
</clipPath>
<clipPath id="clip7">
  <path d="M 50 61.546875 L 69.859375 61.546875 L 69.859375 81.40625 L 50 81.40625 Z M 50 61.546875 "/>
</clipPath>
<clipPath id="clip8">
  <path d="M 0.808594 60.761719 L 30.058594 60.761719 L 30.058594 90.011719 L 0.808594 90.011719 Z M 0.808594 60.761719 "/>
</clipPath>
<clipPath id="clip9">
  <path d="M 45.367188 56.5625 L 74.605469 56.5625 L 74.605469 85.800781 L 45.367188 85.800781 Z M 45.367188 56.5625 "/>
</clipPath>
<clipPath id="clip10">
  <path d="M 44.246094 55.792969 L 75.746094 55.792969 L 75.746094 87.292969 L 44.246094 87.292969 Z M 44.246094 55.792969 "/>
</clipPath>
<clipPath id="clip11">
  <path d="M 38.511719 6.394531 L 82.660156 6.394531 L 82.660156 50.546875 L 38.511719 50.546875 Z M 38.511719 6.394531 "/>
</clipPath>
<clipPath id="clip12">
  <path d="M 82.660156 28.46875 C 82.660156 29.195312 82.625 29.914062 82.554688 30.632812 C 82.484375 31.355469 82.378906 32.066406 82.238281 32.777344 C 82.097656 33.488281 81.921875 34.1875 81.710938 34.878906 C 81.5 35.570312 81.257812 36.25 80.980469 36.917969 C 80.703125 37.585938 80.394531 38.238281 80.054688 38.878906 C 79.714844 39.515625 79.34375 40.132812 78.941406 40.734375 C 78.539062 41.335938 78.109375 41.917969 77.652344 42.476562 C 77.191406 43.035156 76.707031 43.570312 76.195312 44.082031 C 75.683594 44.589844 75.148438 45.078125 74.589844 45.535156 C 74.03125 45.992188 73.453125 46.425781 72.851562 46.824219 C 72.25 47.226562 71.628906 47.597656 70.992188 47.941406 C 70.355469 48.28125 69.703125 48.589844 69.035156 48.867188 C 68.367188 49.140625 67.6875 49.386719 66.992188 49.59375 C 66.300781 49.804688 65.601562 49.980469 64.894531 50.121094 C 64.183594 50.261719 63.46875 50.367188 62.75 50.441406 C 62.03125 50.511719 61.308594 50.546875 60.585938 50.546875 C 59.863281 50.546875 59.140625 50.511719 58.421875 50.441406 C 57.703125 50.367188 56.988281 50.261719 56.277344 50.121094 C 55.570312 49.980469 54.871094 49.804688 54.175781 49.59375 C 53.484375 49.386719 52.804688 49.140625 52.136719 48.867188 C 51.46875 48.589844 50.816406 48.28125 50.179688 47.941406 C 49.542969 47.597656 48.921875 47.226562 48.320312 46.824219 C 47.71875 46.425781 47.140625 45.992188 46.582031 45.535156 C 46.023438 45.078125 45.488281 44.589844 44.976562 44.082031 C 44.464844 43.570312 43.980469 43.035156 43.519531 42.476562 C 43.0625 41.917969 42.632812 41.335938 42.230469 40.734375 C 41.828125 40.132812 41.457031 39.515625 41.117188 38.878906 C 40.777344 38.238281 40.46875 37.585938 40.191406 36.917969 C 39.914062 36.25 39.671875 35.570312 39.460938 34.878906 C 39.25 34.1875 39.074219 33.488281 38.933594 32.777344 C 38.792969 32.066406 38.6875 31.355469 38.617188 30.632812 C 38.546875 29.914062 38.511719 29.195312 38.511719 28.46875 C 38.511719 27.746094 38.546875 27.027344 38.617188 26.308594 C 38.6875 25.585938 38.792969 24.871094 38.933594 24.164062 C 39.074219 23.453125 39.25 22.753906 39.460938 22.0625 C 39.671875 21.371094 39.914062 20.691406 40.191406 20.023438 C 40.46875 19.355469 40.777344 18.703125 41.117188 18.0625 C 41.457031 17.425781 41.828125 16.808594 42.230469 16.207031 C 42.632812 15.605469 43.0625 15.023438 43.519531 14.464844 C 43.980469 13.90625 44.464844 13.371094 44.976562 12.859375 C 45.488281 12.347656 46.023438 11.863281 46.582031 11.40625 C 47.140625 10.949219 47.71875 10.515625 48.320312 10.117188 C 48.921875 9.714844 49.542969 9.34375 50.179688 9 C 50.816406 8.660156 51.46875 8.351562 52.136719 8.074219 C 52.804688 7.796875 53.484375 7.554688 54.175781 7.34375 C 54.871094 7.136719 55.570312 6.960938 56.277344 6.820312 C 56.988281 6.679688 57.703125 6.570312 58.421875 6.5 C 59.140625 6.429688 59.863281 6.394531 60.585938 6.394531 C 61.308594 6.394531 62.03125 6.429688 62.75 6.5 C 63.46875 6.570312 64.183594 6.679688 64.894531 6.820312 C 65.601562 6.960938 66.300781 7.136719 66.992188 7.34375 C 67.6875 7.554688 68.367188 7.796875 69.035156 8.074219 C 69.703125 8.351562 70.355469 8.660156 70.992188 9 C 71.628906 9.34375 72.25 9.714844 72.851562 10.117188 C 73.453125 10.515625 74.03125 10.949219 74.589844 11.40625 C 75.148438 11.863281 75.683594 12.347656 76.195312 12.859375 C 76.707031 13.371094 77.191406 13.90625 77.652344 14.464844 C 78.109375 15.023438 78.539062 15.605469 78.941406 16.207031 C 79.34375 16.808594 79.714844 17.425781 80.054688 18.0625 C 80.394531 18.703125 80.703125 19.355469 80.980469 20.023438 C 81.257812 20.691406 81.5 21.371094 81.710938 22.0625 C 81.921875 22.753906 82.097656 23.453125 82.238281 24.164062 C 82.378906 24.871094 82.484375 25.585938 82.554688 26.308594 C 82.625 27.027344 82.660156 27.746094 82.660156 28.46875 Z M 82.660156 28.46875 "/>
</clipPath>
<clipPath id="clip13">
  <path d="M 37.703125 6.394531 L 82.65625 6.394531 L 82.65625 51.347656 L 37.703125 51.347656 Z M 37.703125 6.394531 "/>
</clipPath>
<clipPath id="clip14">
  <path d="M 45.839844 15 L 73.9375 15 L 73.9375 42.628906 L 45.839844 42.628906 Z M 45.839844 15 "/>
</clipPath>
</defs>
<g id="surface1">
<g clip-path="url(#clip1)" clip-rule="nonzero">
<path style=" stroke:none;fill-rule:nonzero;fill:rgb(91.758728%,67.449951%,47.059631%);fill-opacity:1;" d="M 85.28125 21.988281 L 85.261719 21.988281 L 85.242188 21.984375 C 85.191406 21.980469 85.144531 21.976562 85.097656 21.976562 C 84.378906 21.976562 83.753906 22.636719 83.609375 23.550781 L 75.828125 71.960938 L 75.410156 74.566406 L 67.273438 121.628906 L 73.128906 121.628906 L 78.933594 76.582031 L 86.40625 23.957031 C 86.546875 22.949219 86.066406 22.105469 85.28125 21.988281 "/>
</g>
<g clip-path="url(#clip2)" clip-rule="nonzero">
<path style=" stroke:none;fill-rule:nonzero;fill:rgb(91.758728%,67.449951%,47.059631%);fill-opacity:1;" d="M 35.46875 21.988281 L 35.488281 21.988281 L 35.511719 21.984375 C 35.558594 21.980469 35.605469 21.976562 35.65625 21.976562 C 36.371094 21.976562 36.996094 22.636719 37.140625 23.550781 L 44.921875 71.960938 L 45.339844 74.566406 L 53.476562 121.628906 L 47.621094 121.628906 L 41.816406 76.582031 L 34.34375 23.957031 C 34.203125 22.949219 34.6875 22.105469 35.46875 21.988281 "/>
</g>
<g clip-path="url(#clip3)" clip-rule="nonzero">
<path style=" stroke:none;fill-rule:nonzero;fill:rgb(16.859436%,16.859436%,16.859436%);fill-opacity:1;" d="M 60.375 49.921875 C 59.5 49.921875 58.613281 49.871094 57.738281 49.769531 C 57.339844 49.726562 56.933594 49.664062 56.527344 49.59375 C 54.058594 49.171875 51.695312 48.34375 49.503906 47.136719 L 49.488281 47.128906 C 49.285156 47.011719 49.097656 46.90625 48.917969 46.800781 C 47.160156 45.753906 45.558594 44.480469 44.160156 43.011719 C 44.027344 42.878906 43.90625 42.742188 43.785156 42.609375 C 42.519531 41.214844 41.441406 39.660156 40.578125 37.996094 C 40.496094 37.832031 40.40625 37.65625 40.316406 37.464844 C 39.125 35.003906 38.425781 32.363281 38.238281 29.625 C 38.214844 29.261719 38.195312 28.878906 38.191406 28.492188 C 38.191406 28.390625 38.1875 28.277344 38.1875 28.160156 C 38.1875 16.160156 48.140625 6.394531 60.375 6.394531 C 62.203125 6.394531 64.023438 6.613281 65.785156 7.046875 C 66.238281 7.160156 66.679688 7.285156 67.109375 7.417969 C 70.632812 8.515625 73.851562 10.492188 76.417969 13.125 L 76.738281 13.460938 L 76.761719 13.484375 C 78.9375 15.824219 80.597656 18.65625 81.554688 21.667969 C 81.597656 21.800781 81.640625 21.941406 81.683594 22.082031 L 81.691406 22.109375 C 82.269531 24.070312 82.5625 26.105469 82.5625 28.160156 C 82.5625 28.828125 82.53125 29.507812 82.46875 30.183594 L 82.464844 30.203125 C 82.441406 30.433594 82.417969 30.664062 82.390625 30.886719 C 82.046875 33.558594 81.214844 36.109375 79.914062 38.476562 C 79.691406 38.878906 79.457031 39.28125 79.210938 39.667969 C 77.253906 42.742188 74.519531 45.3125 71.308594 47.101562 C 67.988281 48.945312 64.207031 49.921875 60.375 49.921875 "/>
</g>
<path style=" stroke:none;fill-rule:nonzero;fill:rgb(100%,100%,100%);fill-opacity:1;" d="M 60.375 47.597656 C 59.59375 47.597656 58.796875 47.550781 58.015625 47.460938 C 57.664062 47.417969 57.300781 47.367188 56.9375 47.304688 C 54.730469 46.925781 52.621094 46.1875 50.667969 45.109375 L 50.65625 45.101562 C 50.472656 45 50.304688 44.902344 50.144531 44.808594 C 48.570312 43.875 47.140625 42.738281 45.890625 41.425781 C 45.777344 41.304688 45.667969 41.1875 45.5625 41.070312 C 44.429688 39.820312 43.464844 38.429688 42.695312 36.941406 C 42.621094 36.796875 42.542969 36.644531 42.460938 36.476562 C 41.394531 34.269531 40.773438 31.914062 40.605469 29.472656 C 40.582031 29.148438 40.566406 28.804688 40.5625 28.460938 C 40.5625 28.367188 40.558594 28.261719 40.558594 28.160156 C 40.558594 17.441406 49.449219 8.722656 60.375 8.722656 C 62.007812 8.722656 63.632812 8.917969 65.210938 9.304688 C 65.613281 9.40625 66.007812 9.515625 66.390625 9.632812 C 69.535156 10.617188 72.414062 12.378906 74.703125 14.730469 L 74.988281 15.03125 L 75.007812 15.050781 C 76.957031 17.144531 78.4375 19.671875 79.292969 22.359375 C 79.332031 22.488281 79.371094 22.613281 79.410156 22.738281 L 79.414062 22.757812 C 79.929688 24.507812 80.191406 26.324219 80.191406 28.160156 C 80.191406 28.757812 80.164062 29.367188 80.105469 29.96875 L 80.105469 29.984375 C 80.085938 30.191406 80.0625 30.398438 80.035156 30.597656 C 79.730469 32.984375 78.988281 35.261719 77.828125 37.371094 C 77.628906 37.734375 77.417969 38.089844 77.195312 38.4375 C 75.449219 41.183594 73.007812 43.480469 70.140625 45.078125 C 67.175781 46.726562 63.800781 47.597656 60.375 47.597656 "/>
<path style=" stroke:none;fill-rule:nonzero;fill:rgb(95.689392%,30.979919%,18.429565%);fill-opacity:1;" d="M 74.144531 28.160156 C 74.144531 28.585938 74.125 29.007812 74.085938 29.425781 C 74.070312 29.570312 74.054688 29.714844 74.035156 29.859375 C 73.820312 31.542969 73.289062 33.128906 72.503906 34.558594 C 72.363281 34.8125 72.21875 35.058594 72.0625 35.300781 C 69.632812 39.121094 65.308594 41.664062 60.375 41.664062 C 59.816406 41.664062 59.269531 41.632812 58.726562 41.570312 C 58.480469 41.539062 58.230469 41.503906 57.988281 41.460938 C 56.429688 41.195312 54.960938 40.671875 53.632812 39.9375 C 53.507812 39.871094 53.386719 39.800781 53.269531 39.730469 C 52.175781 39.082031 51.175781 38.285156 50.308594 37.375 C 50.234375 37.296875 50.160156 37.214844 50.085938 37.132812 C 49.296875 36.265625 48.625 35.296875 48.085938 34.253906 C 48.03125 34.148438 47.980469 34.042969 47.929688 33.9375 C 47.207031 32.449219 46.757812 30.804688 46.636719 29.074219 C 46.621094 28.84375 46.613281 28.613281 46.609375 28.378906 C 46.609375 28.304688 46.605469 28.234375 46.605469 28.160156 C 46.605469 20.699219 52.773438 14.652344 60.375 14.652344 C 61.535156 14.652344 62.664062 14.792969 63.738281 15.058594 C 64.015625 15.128906 64.285156 15.203125 64.554688 15.285156 C 66.777344 15.980469 68.757812 17.214844 70.332031 18.828125 L 70.542969 19.050781 C 71.886719 20.496094 72.914062 22.226562 73.523438 24.136719 C 73.550781 24.226562 73.578125 24.316406 73.605469 24.40625 C 73.957031 25.597656 74.144531 26.855469 74.144531 28.160156 "/>
<path style=" stroke:none;fill-rule:nonzero;fill:rgb(100%,97.24884%,84.309387%);fill-opacity:1;" d="M 64.554688 15.285156 C 64.253906 15.386719 63.957031 15.488281 63.660156 15.589844 C 59.757812 16.902344 56.683594 18.464844 54.269531 20.359375 C 51.28125 22.644531 49.023438 25.640625 47.390625 28 C 47.140625 28.351562 46.886719 28.714844 46.636719 29.074219 C 46.621094 28.84375 46.613281 28.613281 46.609375 28.378906 C 46.824219 28.03125 47.039062 27.683594 47.257812 27.34375 C 49.433594 23.847656 51.511719 21.410156 53.800781 19.664062 C 56.164062 17.808594 59.203125 16.363281 63.09375 15.246094 C 63.308594 15.183594 63.527344 15.121094 63.738281 15.058594 C 64.015625 15.128906 64.285156 15.203125 64.554688 15.285156 "/>
<path style=" stroke:none;fill-rule:nonzero;fill:rgb(100%,97.24884%,84.309387%);fill-opacity:1;" d="M 70.542969 19.050781 C 70.152344 19.164062 69.757812 19.273438 69.363281 19.382812 C 68.457031 19.636719 67.515625 19.902344 66.601562 20.183594 C 62.648438 21.359375 59.511719 22.8125 57.007812 24.625 C 53.917969 26.804688 51.519531 29.730469 49.777344 32.035156 C 49.445312 32.460938 49.109375 32.902344 48.785156 33.332031 C 48.550781 33.640625 48.316406 33.949219 48.085938 34.253906 C 48.03125 34.148438 47.980469 34.042969 47.929688 33.9375 C 48.105469 33.675781 48.285156 33.410156 48.460938 33.148438 C 48.859375 32.5625 49.265625 31.960938 49.675781 31.371094 C 52.019531 27.949219 54.210938 25.578125 56.578125 23.910156 C 58.917969 22.214844 61.839844 20.921875 65.511719 19.957031 C 65.695312 19.910156 65.875 19.863281 66.054688 19.820312 C 67.171875 19.527344 68.324219 19.273438 69.433594 19.027344 C 69.734375 18.964844 70.03125 18.898438 70.332031 18.828125 L 70.542969 19.050781 "/>
<path style=" stroke:none;fill-rule:nonzero;fill:rgb(100%,97.24884%,84.309387%);fill-opacity:1;" d="M 73.605469 24.40625 C 73.300781 24.46875 72.988281 24.527344 72.675781 24.589844 C 71.75 24.769531 70.796875 24.953125 69.859375 25.164062 C 69.09375 25.324219 68.347656 25.5 67.640625 25.683594 C 64.605469 26.480469 62.066406 27.507812 59.878906 28.824219 C 56.578125 30.757812 53.875 33.496094 51.890625 35.664062 C 51.511719 36.066406 51.132812 36.480469 50.761719 36.882812 C 50.609375 37.046875 50.460938 37.210938 50.308594 37.375 C 50.234375 37.296875 50.160156 37.214844 50.085938 37.132812 C 50.210938 36.980469 50.335938 36.828125 50.464844 36.675781 C 50.917969 36.117188 51.394531 35.546875 51.867188 34.992188 C 54.574219 31.75 57.011719 29.550781 59.535156 28.070312 C 61.367188 26.96875 63.445312 26.121094 65.890625 25.480469 C 66.964844 25.199219 68.132812 24.953125 69.363281 24.75 C 70.496094 24.550781 71.664062 24.390625 72.789062 24.238281 C 73.035156 24.203125 73.277344 24.171875 73.523438 24.136719 C 73.550781 24.226562 73.578125 24.316406 73.605469 24.40625 "/>
<path style=" stroke:none;fill-rule:nonzero;fill:rgb(100%,97.24884%,84.309387%);fill-opacity:1;" d="M 74.085938 29.425781 C 74.070312 29.570312 74.054688 29.714844 74.035156 29.859375 C 73.664062 29.910156 73.289062 29.96875 72.917969 30.027344 C 71.273438 30.269531 69.785156 30.566406 68.382812 30.933594 C 66.265625 31.488281 64.410156 32.1875 62.707031 33.066406 C 59.265625 34.796875 56.34375 37.371094 54.183594 39.421875 C 54 39.589844 53.816406 39.765625 53.632812 39.9375 C 53.507812 39.871094 53.386719 39.800781 53.269531 39.730469 C 53.582031 39.398438 53.902344 39.070312 54.222656 38.746094 C 57.191406 35.664062 59.800781 33.613281 62.433594 32.289062 C 63.851562 31.554688 65.441406 30.957031 67.160156 30.503906 C 68.773438 30.082031 70.507812 29.777344 72.464844 29.582031 C 73 29.523438 73.542969 29.472656 74.085938 29.425781 "/>
<path style=" stroke:none;fill-rule:nonzero;fill:rgb(100%,97.24884%,84.309387%);fill-opacity:1;" d="M 72.503906 34.558594 C 72.363281 34.8125 72.21875 35.058594 72.0625 35.300781 C 71.296875 35.445312 70.554688 35.613281 69.84375 35.800781 C 68.285156 36.207031 66.820312 36.726562 65.488281 37.339844 C 62.957031 38.46875 60.664062 40.046875 58.726562 41.570312 C 58.480469 41.539062 58.230469 41.503906 57.988281 41.460938 C 60.601562 39.160156 62.941406 37.582031 65.269531 36.546875 C 66.402344 36.023438 67.628906 35.589844 68.925781 35.25 C 70.050781 34.953125 71.234375 34.726562 72.503906 34.558594 "/>
<g clip-path="url(#clip4)" clip-rule="nonzero">
<g clip-path="url(#clip5)" clip-rule="nonzero">
<path style=" stroke:none;fill-rule:nonzero;fill:rgb(94.499207%,72.898865%,21.998596%);fill-opacity:1;" d="M 44.816406 55.792969 L 44.816406 87 L 76.027344 87 L 76.027344 55.792969 Z M 44.816406 55.792969 "/>
</g>
</g>
<g clip-path="url(#clip6)" clip-rule="nonzero">
<path style=" stroke:none;fill-rule:nonzero;fill:rgb(90.979004%,67.83905%,13.328552%);fill-opacity:1;" d="M 60.132812 57.378906 C 68.019531 57.378906 74.433594 63.792969 74.433594 71.679688 C 74.433594 79.566406 68.019531 85.980469 60.132812 85.980469 C 52.25 85.980469 45.835938 79.566406 45.835938 71.679688 C 45.835938 63.792969 52.25 57.378906 60.132812 57.378906 M 60.132812 55.792969 C 51.359375 55.792969 44.246094 62.90625 44.246094 71.679688 C 44.246094 80.453125 51.359375 87.566406 60.132812 87.566406 C 68.910156 87.566406 76.023438 80.453125 76.023438 71.679688 C 76.023438 62.90625 68.910156 55.792969 60.132812 55.792969 Z M 60.132812 55.792969 "/>
</g>
<g clip-path="url(#clip7)" clip-rule="nonzero">
<path style=" stroke:none;fill-rule:nonzero;fill:rgb(13.328552%,13.328552%,13.328552%);fill-opacity:1;" d="M 54.820312 71.597656 L 52.652344 73.773438 L 50.484375 71.597656 L 52.652344 69.421875 Z M 60.089844 66.316406 L 63.808594 70.042969 L 65.976562 67.871094 L 60.089844 61.96875 L 54.203125 67.871094 L 56.371094 70.042969 Z M 67.527344 69.421875 L 65.359375 71.597656 L 67.527344 73.773438 L 69.695312 71.597656 Z M 60.089844 76.875 L 56.371094 73.148438 L 54.203125 75.324219 L 60.089844 81.222656 L 65.976562 75.324219 L 63.808594 73.148438 Z M 60.089844 73.773438 L 62.257812 71.597656 L 60.089844 69.421875 L 57.921875 71.597656 Z M 38.4375 91.707031 L 38.4375 91.6875 C 38.4375 90.550781 37.839844 89.984375 36.863281 89.609375 C 37.460938 89.273438 37.96875 88.742188 37.96875 87.785156 L 37.96875 87.761719 C 37.96875 86.433594 36.910156 85.578125 35.1875 85.578125 L 31.273438 85.578125 L 31.273438 94.027344 L 35.28125 94.027344 C 37.1875 94.023438 38.4375 93.253906 38.4375 91.707031 Z M 36.125 88.097656 C 36.125 88.726562 35.609375 88.992188 34.789062 88.992188 L 33.074219 88.992188 L 33.074219 87.203125 L 34.90625 87.203125 C 35.6875 87.203125 36.121094 87.519531 36.121094 88.074219 Z M 36.597656 91.476562 C 36.597656 92.105469 36.101562 92.394531 35.28125 92.394531 L 33.074219 92.394531 L 33.074219 90.535156 L 35.222656 90.535156 C 36.175781 90.535156 36.597656 90.886719 36.597656 91.453125 Z M 42.328125 94.023438 L 42.328125 85.574219 L 40.472656 85.574219 L 40.472656 94.023438 Z M 52.300781 94.023438 L 52.300781 85.574219 L 50.46875 85.574219 L 50.46875 90.785156 L 46.519531 85.582031 L 44.808594 85.582031 L 44.808594 94.03125 L 46.636719 94.03125 L 46.636719 88.652344 L 50.722656 94.023438 Z M 62.574219 94.023438 L 58.960938 85.519531 L 57.25 85.519531 L 53.636719 94.023438 L 55.527344 94.023438 L 56.296875 92.128906 L 59.863281 92.128906 L 60.636719 94.023438 Z M 59.203125 90.484375 L 56.960938 90.484375 L 58.082031 87.742188 Z M 71.417969 94.019531 L 71.417969 85.574219 L 69.585938 85.574219 L 69.585938 90.785156 L 65.644531 85.574219 L 63.933594 85.574219 L 63.933594 94.023438 L 65.761719 94.023438 L 65.761719 88.652344 L 69.847656 94.023438 Z M 80.992188 92.65625 L 79.8125 91.453125 C 79.148438 92.054688 78.558594 92.441406 77.597656 92.441406 C 76.152344 92.441406 75.152344 91.238281 75.152344 89.789062 L 75.152344 89.761719 C 75.152344 88.316406 76.175781 87.132812 77.597656 87.132812 C 78.441406 87.132812 79.097656 87.492188 79.753906 88.085938 L 80.933594 86.71875 C 80.148438 85.949219 79.199219 85.417969 77.609375 85.417969 C 75.019531 85.417969 73.210938 87.386719 73.210938 89.789062 L 73.210938 89.8125 C 73.210938 92.238281 75.054688 94.15625 77.535156 94.15625 C 79.160156 94.167969 80.125 93.589844 80.992188 92.660156 Z M 88.90625 94.023438 L 88.90625 92.371094 L 84.328125 92.371094 L 84.328125 90.59375 L 88.308594 90.59375 L 88.308594 88.941406 L 84.328125 88.941406 L 84.328125 87.230469 L 88.847656 87.230469 L 88.847656 85.574219 L 82.488281 85.574219 L 82.488281 94.023438 Z M 88.90625 94.023438 "/>
</g>
<g clip-path="url(#clip8)" clip-rule="nonzero">
<path style=" stroke:none;fill-rule:nonzero;fill:rgb(100%,100%,100%);fill-opacity:1;" d="M 30.058594 75.386719 C 30.058594 76.34375 29.964844 77.296875 29.777344 78.238281 C 29.589844 79.179688 29.3125 80.09375 28.945312 80.980469 C 28.578125 81.867188 28.128906 82.710938 27.59375 83.511719 C 27.058594 84.308594 26.453125 85.046875 25.773438 85.726562 C 25.097656 86.40625 24.355469 87.011719 23.558594 87.546875 C 22.761719 88.078125 21.917969 88.527344 21.03125 88.898438 C 20.144531 89.265625 19.230469 89.542969 18.285156 89.730469 C 17.34375 89.917969 16.394531 90.011719 15.433594 90.011719 C 14.472656 90.011719 13.523438 89.917969 12.582031 89.730469 C 11.640625 89.542969 10.722656 89.265625 9.835938 88.898438 C 8.949219 88.527344 8.105469 88.078125 7.308594 87.546875 C 6.511719 87.011719 5.769531 86.40625 5.09375 85.726562 C 4.414062 85.046875 3.808594 84.308594 3.273438 83.511719 C 2.738281 82.710938 2.289062 81.867188 1.921875 80.980469 C 1.554688 80.09375 1.277344 79.179688 1.089844 78.238281 C 0.902344 77.296875 0.808594 76.34375 0.808594 75.386719 C 0.808594 74.425781 0.902344 73.472656 1.089844 72.53125 C 1.277344 71.589844 1.554688 70.675781 1.921875 69.789062 C 2.289062 68.902344 2.738281 68.058594 3.273438 67.261719 C 3.808594 66.460938 4.414062 65.722656 5.09375 65.042969 C 5.769531 64.363281 6.511719 63.757812 7.308594 63.226562 C 8.105469 62.691406 8.949219 62.242188 9.835938 61.875 C 10.722656 61.503906 11.640625 61.226562 12.582031 61.042969 C 13.523438 60.855469 14.472656 60.761719 15.433594 60.761719 C 16.394531 60.761719 17.34375 60.855469 18.285156 61.042969 C 19.230469 61.226562 20.144531 61.503906 21.03125 61.875 C 21.917969 62.242188 22.761719 62.691406 23.558594 63.226562 C 24.355469 63.757812 25.097656 64.363281 25.773438 65.042969 C 26.453125 65.722656 27.058594 66.460938 27.59375 67.261719 C 28.128906 68.058594 28.578125 68.902344 28.945312 69.789062 C 29.3125 70.675781 29.589844 71.589844 29.777344 72.53125 C 29.964844 73.472656 30.058594 74.425781 30.058594 75.386719 Z M 30.058594 75.386719 "/>
</g>
<path style=" stroke:none;fill-rule:evenodd;fill:rgb(100%,100%,100%);fill-opacity:1;" d="M 9.210938 71.671875 L 15.441406 65.441406 L 17.925781 67.925781 L 11.695312 74.15625 Z M 9.214844 79.117188 L 19.171875 69.160156 L 21.65625 71.644531 L 11.699219 81.597656 Z M 22.894531 72.890625 L 12.9375 82.847656 L 15.421875 85.328125 L 25.378906 75.375 Z M 5.488281 75.390625 L 7.972656 72.90625 L 10.457031 75.390625 L 7.972656 77.875 Z M 5.488281 75.390625 "/>
<g clip-path="url(#clip9)" clip-rule="nonzero">
<path style=" stroke:none;fill-rule:nonzero;fill:rgb(94.119263%,72.549438%,4.309082%);fill-opacity:1;" d="M 74.605469 71.183594 C 74.605469 72.144531 74.511719 73.09375 74.324219 74.035156 C 74.140625 74.976562 73.863281 75.890625 73.492188 76.777344 C 73.125 77.664062 72.675781 78.507812 72.144531 79.304688 C 71.609375 80.101562 71.003906 80.839844 70.324219 81.519531 C 69.644531 82.199219 68.90625 82.804688 68.109375 83.339844 C 67.3125 83.871094 66.46875 84.320312 65.582031 84.6875 C 64.695312 85.058594 63.78125 85.335938 62.839844 85.519531 C 61.898438 85.707031 60.949219 85.800781 59.988281 85.800781 C 59.027344 85.800781 58.078125 85.707031 57.136719 85.519531 C 56.195312 85.335938 55.28125 85.058594 54.394531 84.6875 C 53.507812 84.320312 52.664062 83.871094 51.867188 83.339844 C 51.066406 82.804688 50.328125 82.199219 49.652344 81.519531 C 48.972656 80.839844 48.367188 80.101562 47.832031 79.304688 C 47.300781 78.507812 46.847656 77.664062 46.480469 76.777344 C 46.113281 75.890625 45.835938 74.976562 45.648438 74.035156 C 45.460938 73.09375 45.367188 72.144531 45.367188 71.183594 C 45.367188 70.222656 45.460938 69.273438 45.648438 68.332031 C 45.835938 67.390625 46.113281 66.476562 46.480469 65.589844 C 46.847656 64.703125 47.300781 63.859375 47.832031 63.0625 C 48.367188 62.261719 48.972656 61.523438 49.652344 60.847656 C 50.328125 60.167969 51.066406 59.5625 51.867188 59.027344 C 52.664062 58.496094 53.507812 58.042969 54.394531 57.675781 C 55.28125 57.308594 56.195312 57.03125 57.136719 56.84375 C 58.078125 56.65625 59.027344 56.5625 59.988281 56.5625 C 60.949219 56.5625 61.898438 56.65625 62.839844 56.84375 C 63.78125 57.03125 64.695312 57.308594 65.582031 57.675781 C 66.46875 58.042969 67.3125 58.496094 68.109375 59.027344 C 68.90625 59.5625 69.644531 60.167969 70.324219 60.847656 C 71.003906 61.523438 71.609375 62.261719 72.144531 63.0625 C 72.675781 63.859375 73.125 64.703125 73.492188 65.589844 C 73.863281 66.476562 74.140625 67.390625 74.324219 68.332031 C 74.511719 69.273438 74.605469 70.222656 74.605469 71.183594 Z M 74.605469 71.183594 "/>
</g>
<path style=" stroke:none;fill-rule:evenodd;fill:rgb(100%,100%,100%);fill-opacity:1;" d="M 53.765625 67.46875 L 59.992188 61.242188 L 62.476562 63.726562 L 56.25 69.953125 Z M 53.769531 74.910156 L 63.722656 64.960938 L 66.207031 67.441406 L 56.253906 77.394531 Z M 67.445312 68.6875 L 57.492188 78.640625 L 59.976562 81.125 L 69.929688 71.171875 Z M 50.046875 71.1875 L 52.53125 68.707031 L 55.011719 71.1875 L 52.53125 73.671875 Z M 50.046875 71.1875 "/>
<g clip-path="url(#clip10)" clip-rule="nonzero">
<path style=" stroke:none;fill-rule:nonzero;fill:rgb(90.979004%,67.83905%,13.328552%);fill-opacity:1;" d="M 59.996094 57.367188 C 67.8125 57.367188 74.171875 63.726562 74.171875 71.542969 C 74.171875 79.359375 67.8125 85.71875 59.996094 85.71875 C 52.179688 85.71875 45.820312 79.359375 45.820312 71.542969 C 45.820312 63.726562 52.179688 57.367188 59.996094 57.367188 M 59.996094 55.792969 C 51.296875 55.792969 44.246094 62.84375 44.246094 71.542969 C 44.246094 80.242188 51.296875 87.292969 59.996094 87.292969 C 68.695312 87.292969 75.746094 80.242188 75.746094 71.542969 C 75.746094 62.84375 68.695312 55.792969 59.996094 55.792969 Z M 59.996094 55.792969 "/>
</g>
<g clip-path="url(#clip11)" clip-rule="nonzero">
<g clip-path="url(#clip12)" clip-rule="nonzero">
<path style=" stroke:none;fill-rule:nonzero;fill:rgb(94.499207%,72.898865%,21.998596%);fill-opacity:1;" d="M 38.511719 6.394531 L 38.511719 50.546875 L 82.660156 50.546875 L 82.660156 6.394531 Z M 38.511719 6.394531 "/>
</g>
</g>
<g clip-path="url(#clip13)" clip-rule="nonzero">
<path style=" stroke:none;fill-rule:nonzero;fill:rgb(90.979004%,67.83905%,13.328552%);fill-opacity:1;" d="M 60.179688 8.644531 C 71.335938 8.644531 80.410156 17.714844 80.410156 28.871094 C 80.410156 40.027344 71.335938 49.101562 60.179688 49.101562 C 49.023438 49.101562 39.949219 40.027344 39.949219 28.871094 C 39.949219 17.714844 49.023438 8.644531 60.179688 8.644531 M 60.179688 6.394531 C 47.765625 6.394531 37.703125 16.457031 37.703125 28.871094 C 37.703125 41.285156 47.765625 51.347656 60.179688 51.347656 C 72.59375 51.347656 82.65625 41.285156 82.65625 28.871094 C 82.65625 16.457031 72.59375 6.394531 60.179688 6.394531 Z M 60.179688 6.394531 "/>
</g>
<g clip-path="url(#clip14)" clip-rule="nonzero">
<path style=" stroke:none;fill-rule:nonzero;fill:rgb(13.328552%,13.328552%,13.328552%);fill-opacity:1;" d="M 52.664062 28.753906 L 49.59375 31.832031 L 46.527344 28.753906 L 49.59375 25.679688 Z M 60.117188 21.285156 L 65.375 26.558594 L 68.445312 23.484375 L 60.117188 15.132812 L 51.785156 23.484375 L 54.855469 26.558594 Z M 70.636719 25.679688 L 67.570312 28.753906 L 70.636719 31.832031 L 73.707031 28.753906 Z M 60.117188 36.222656 L 54.855469 30.953125 L 51.785156 34.027344 L 60.117188 42.375 L 68.445312 34.027344 L 65.375 30.953125 Z M 60.117188 31.832031 L 63.183594 28.753906 L 60.117188 25.679688 L 57.046875 28.753906 Z M 29.488281 57.207031 L 29.488281 57.175781 C 29.488281 55.570312 28.636719 54.765625 27.253906 54.238281 C 28.105469 53.761719 28.820312 53.007812 28.820312 51.660156 L 28.820312 51.625 C 28.820312 49.746094 27.324219 48.535156 24.886719 48.535156 L 19.347656 48.535156 L 19.347656 60.488281 L 25.019531 60.488281 C 27.714844 60.484375 29.488281 59.390625 29.488281 57.207031 Z M 26.214844 52.097656 C 26.214844 52.988281 25.480469 53.363281 24.324219 53.363281 L 21.894531 53.363281 L 21.894531 50.832031 L 24.484375 50.832031 C 25.59375 50.832031 26.207031 51.277344 26.207031 52.0625 Z M 26.878906 56.878906 C 26.878906 57.769531 26.179688 58.179688 25.019531 58.179688 L 21.894531 58.179688 L 21.894531 55.546875 L 24.9375 55.546875 C 26.28125 55.546875 26.878906 56.042969 26.878906 56.847656 Z M 34.992188 60.484375 L 34.992188 48.527344 L 32.367188 48.527344 L 32.367188 60.484375 Z M 49.097656 60.484375 L 49.097656 48.527344 L 46.503906 48.527344 L 46.503906 55.898438 L 40.917969 48.539062 L 38.496094 48.539062 L 38.496094 60.492188 L 41.085938 60.492188 L 41.085938 52.882812 L 46.863281 60.484375 Z M 63.632812 60.484375 L 58.519531 48.449219 L 56.101562 48.449219 L 50.984375 60.484375 L 53.660156 60.484375 L 54.753906 57.804688 L 59.796875 57.804688 L 60.890625 60.484375 Z M 58.863281 55.472656 L 55.691406 55.472656 L 57.277344 51.597656 Z M 76.140625 60.480469 L 76.140625 48.527344 L 73.550781 48.527344 L 73.550781 55.898438 L 67.972656 48.527344 L 65.550781 48.527344 L 65.550781 60.484375 L 68.144531 60.484375 L 68.144531 52.882812 L 73.917969 60.484375 Z M 89.6875 58.546875 L 88.019531 56.847656 C 87.082031 57.695312 86.246094 58.246094 84.882812 58.246094 C 82.839844 58.246094 81.425781 56.542969 81.425781 54.488281 L 81.425781 54.457031 C 81.425781 52.40625 82.875 50.730469 84.882812 50.730469 C 86.078125 50.730469 87.007812 51.246094 87.933594 52.082031 L 89.605469 50.152344 C 88.496094 49.058594 87.148438 48.308594 84.902344 48.308594 C 81.238281 48.308594 78.679688 51.089844 78.679688 54.488281 L 78.679688 54.523438 C 78.679688 57.957031 81.289062 60.671875 84.800781 60.671875 C 87.097656 60.6875 88.460938 59.871094 89.6875 58.554688 Z M 100.886719 60.484375 L 100.886719 58.144531 L 94.410156 58.144531 L 94.410156 55.632812 L 100.035156 55.632812 L 100.035156 53.292969 L 94.410156 53.292969 L 94.410156 50.871094 L 100.800781 50.871094 L 100.800781 48.527344 L 91.804688 48.527344 L 91.804688 60.484375 Z M 100.886719 60.484375 "/>
</g>
</g>
</svg>
